<svg width="30" height="30" viewBox="0 0 30 30" fill="none" xmlns="http://www.w3.org/2000/svg">
<path d="M27.6375 26.825L2.98745 2.16251L1.38745 3.75001L8.86245 11.25C7.07495 12.95 6.09995 15.5875 6.24995 18.0875C6.32495 18.7125 6.39995 19.3375 6.61245 19.9625C6.78745 20.7125 7.12495 21.4625 7.49995 22.125C8.84995 24.2875 11.1875 25.8375 13.7 26.15C16.375 26.4875 19.2375 26 21.2875 24.15C21.375 24.075 21.4375 23.975 21.525 23.8875L26.0499 28.4125L27.6375 26.825ZM11 17.5625C10.7125 17.6875 10.4125 17.6125 10.175 17.4125C10.1036 17.3535 10.0442 17.2814 9.99995 17.2C8.74995 15.5875 8.42495 13.3625 9.07495 11.4375L10.725 13.0875C10.725 14.25 10.9125 15.4125 11.3375 16.525C11.3875 16.65 11.4375 16.775 11.4375 16.9375C11.4375 17.2125 11.25 17.4625 11 17.5625ZM18.125 21.875C17.775 22.175 17.2 22.5 16.75 22.625C15.35 23.125 13.95 22.425 13.125 21.6C14.6125 21.25 15.5 20.15 15.7625 19.0375C15.825 18.75 15.825 18.45 15.8 18.1625L18.75 21.1C18.5625 21.3875 18.3625 21.6625 18.125 21.875ZM23.65 19.65L12.0625 8.07501C12.65 7.06251 13.4 6.15001 14.325 5.40001C15.2125 4.68751 16.25 4.03751 17.4375 3.75001C16.25 6.06251 16.6625 9.07501 18.525 10.9C19.325 11.6875 20.275 12.225 21.1125 12.975C21.4375 13.3 21.7875 13.625 22.075 14C22.075 14 22.775 15 23.0375 15.575L23.1999 15.9C23.6999 17.1125 23.825 18.4 23.65 19.65Z" fill="#ACABAB"/>
</svg>
