<svg width="30" height="30" viewBox="0 0 30 30" fill="none" xmlns="http://www.w3.org/2000/svg">
<path d="M23.7029 23.9591L23.9614 22.75H22.725H16.25C16.1837 22.75 16.1201 22.7237 16.0732 22.6768C16.0263 22.6299 16 22.5663 16 22.5V20.9375C16 20.8386 16.0212 20.7321 16.0602 20.6357L18.8798 14.0356C18.8801 14.0349 18.8805 14.0342 18.8808 14.0335C19.0187 13.7179 19.3327 13.5 19.6875 13.5H28.125C28.3571 13.5 28.5796 13.5922 28.7437 13.7563C28.9078 13.9204 29 14.1429 29 14.375V22.5C29 22.7359 28.9011 22.9597 28.7429 23.1179L23.2705 28.5903L23.0127 28.3357C22.9047 28.2112 22.875 28.1095 22.875 28.025V27.8307L23.7029 23.9591ZM1.25711 6.88211L6.725 1.41421L6.99474 1.68395C7.08565 1.78235 7.125 1.88995 7.125 1.9875V2.16928L6.29711 6.04089L6.03856 7.25H7.275H13.75C13.8163 7.25 13.8799 7.27634 13.9268 7.32322C13.9737 7.37011 14 7.4337 14 7.5V9.0625C14 9.16142 13.9788 9.26798 13.9398 9.36439L11.1192 15.9665C10.9813 16.2821 10.6673 16.5 10.3125 16.5H1.875C1.64294 16.5 1.42038 16.4078 1.25628 16.2437C1.09219 16.0796 1 15.8571 1 15.625V7.5C1 7.26414 1.09891 7.04031 1.25711 6.88211Z" stroke="#FFAB28" stroke-width="2"/>
</svg>
