<svg width="143" height="214" viewBox="0 0 143 214" fill="none" xmlns="http://www.w3.org/2000/svg">
<path opacity="0.3" d="M134.439 129.039H51.5293V214H0.113281V0.71875H142.789V40.416H51.5293V89.4883H134.439V129.039Z" fill="white"/>
</svg>
