<svg width="40" height="40" viewBox="0 0 40 40" fill="none" xmlns="http://www.w3.org/2000/svg">
<path d="M19.9999 35C18.9249 34.0467 17.7099 33.055 16.4249 32H16.4083C11.8833 28.3 6.75494 24.1133 4.48994 19.0966C3.7466 17.5 3.3516 15.7633 3.33327 14C3.3308 12.8033 3.56746 11.6182 4.02934 10.5142C4.49123 9.41021 5.16903 8.40965 6.02295 7.57126C6.87687 6.73286 7.8897 6.07353 9.00196 5.63198C10.1142 5.19043 11.3035 4.97555 12.4999 4.99998C14.4677 5.00309 16.393 5.57178 18.0466 6.63831C18.7732 7.10993 19.4306 7.6804 19.9999 8.33331C20.5733 7.68331 21.2299 7.11331 21.9549 6.63831C23.6078 5.57157 25.5327 5.00284 27.4999 4.99998C28.6964 4.97555 29.8857 5.19043 30.9979 5.63198C32.1102 6.07353 33.123 6.73286 33.9769 7.57126C34.8308 8.40965 35.5087 9.41021 35.9705 10.5142C36.4324 11.6182 36.6691 12.8033 36.6666 14C36.6496 15.7647 36.2552 17.5053 35.5099 19.105C33.2449 24.1216 28.1183 28.3067 23.5933 32L23.5766 32.0133C22.2899 33.0617 21.0766 34.0533 20.0016 35.0133L19.9999 35Z" fill="#EF5448"/>
</svg>
